%YAML 1.1
%TAG !u! tag:unity3d.com,2011:
--- !u!74 &7400000
AnimationClip:
  m_ObjectHideFlags: 0
  m_CorrespondingSourceObject: {fileID: 0}
  m_PrefabInternal: {fileID: 0}
  m_Name: Arrows
  serializedVersion: 6
  m_Legacy: 0
  m_Compressed: 0
  m_UseHighQualityCurve: 1
  m_RotationCurves: []
  m_CompressedRotationCurves: []
  m_EulerCurves: []
  m_PositionCurves: []
  m_ScaleCurves: []
  m_FloatCurves: []
  m_PPtrCurves:
  - curve:
    - time: 0
      value: {fileID: 2100000, guid: c93c746466c5649e6a8b976b1ad0ee15, type: 2}
    - time: 0.033333335
      value: {fileID: 2100000, guid: 27d2ced4fcee545e0a2549139f9479b7, type: 2}
    - time: 0.06666667
      value: {fileID: 2100000, guid: da66a5ee3ecd84c3b98a90a25b2f8ef6, type: 2}
    - time: 0.1
      value: {fileID: 2100000, guid: 54dee3ee412354c3781d37a5473c7f79, type: 2}
    - time: 0.13333334
      value: {fileID: 2100000, guid: ac4d5078bab184f2bb90bc0af7f8c6cd, type: 2}
    - time: 0.16666667
      value: {fileID: 2100000, guid: 2c55a8309fde446aeba5ca610f7c646f, type: 2}
    - time: 0.2
      value: {fileID: 2100000, guid: 890eb7f2f47894fb2952f97cab74e97d, type: 2}
    - time: 0.23333333
      value: {fileID: 2100000, guid: d1c612a6fb80d45e3b1b329d0a354f7a, type: 2}
    - time: 0.26666668
      value: {fileID: 2100000, guid: 3d5a56589a2664fe6aa107e9e5f86d9b, type: 2}
    - time: 0.3
      value: {fileID: 2100000, guid: 0c6ab94b141234308bd1552adbb7de01, type: 2}
    - time: 0.33333334
      value: {fileID: 2100000, guid: c93c746466c5649e6a8b976b1ad0ee15, type: 2}
    attribute: m_Materials.Array.data[0]
    path: 
    classID: 23
    script: {fileID: 0}
  m_SampleRate: 60
  m_WrapMode: 0
  m_Bounds:
    m_Center: {x: 0, y: 0, z: 0}
    m_Extent: {x: 0, y: 0, z: 0}
  m_ClipBindingConstant:
    genericBindings:
    - serializedVersion: 2
      path: 0
      attribute: 0
      script: {fileID: 0}
      typeID: 23
      customType: 21
      isPPtrCurve: 1
    pptrCurveMapping:
    - {fileID: 2100000, guid: c93c746466c5649e6a8b976b1ad0ee15, type: 2}
    - {fileID: 2100000, guid: 27d2ced4fcee545e0a2549139f9479b7, type: 2}
    - {fileID: 2100000, guid: da66a5ee3ecd84c3b98a90a25b2f8ef6, type: 2}
    - {fileID: 2100000, guid: 54dee3ee412354c3781d37a5473c7f79, type: 2}
    - {fileID: 2100000, guid: ac4d5078bab184f2bb90bc0af7f8c6cd, type: 2}
    - {fileID: 2100000, guid: 2c55a8309fde446aeba5ca610f7c646f, type: 2}
    - {fileID: 2100000, guid: 890eb7f2f47894fb2952f97cab74e97d, type: 2}
    - {fileID: 2100000, guid: d1c612a6fb80d45e3b1b329d0a354f7a, type: 2}
    - {fileID: 2100000, guid: 3d5a56589a2664fe6aa107e9e5f86d9b, type: 2}
    - {fileID: 2100000, guid: 0c6ab94b141234308bd1552adbb7de01, type: 2}
    - {fileID: 2100000, guid: c93c746466c5649e6a8b976b1ad0ee15, type: 2}
  m_AnimationClipSettings:
    serializedVersion: 2
    m_AdditiveReferencePoseClip: {fileID: 0}
    m_AdditiveReferencePoseTime: 0
    m_StartTime: 0
    m_StopTime: 0.35000002
    m_OrientationOffsetY: 0
    m_Level: 0
    m_CycleOffset: 0
    m_HasAdditiveReferencePose: 0
    m_LoopTime: 1
    m_LoopBlend: 0
    m_LoopBlendOrientation: 0
    m_LoopBlendPositionY: 0
    m_LoopBlendPositionXZ: 0
    m_KeepOriginalOrientation: 0
    m_KeepOriginalPositionY: 1
    m_KeepOriginalPositionXZ: 0
    m_HeightFromFeet: 0
    m_Mirror: 0
  m_EditorCurves: []
  m_EulerEditorCurves: []
  m_HasGenericRootTransform: 0
  m_HasMotionFloatCurves: 0
  m_GenerateMotionCurves: 0
  m_Events: []
