%YAML 1.1
%TAG !u! tag:unity3d.com,2011:
--- !u!114 &11400000
MonoBehaviour:
  m_ObjectHideFlags: 0
  m_PrefabParentObject: {fileID: 0}
  m_PrefabInternal: {fileID: 0}
  m_GameObject: {fileID: 0}
  m_Enabled: 1
  m_EditorHideFlags: 0
  m_Script: {fileID: 11500000, guid: 3fb0a81d01fda4dd882efa645563b789, type: 3}
  m_Name: Teleport
  m_EditorClassIdentifier: 
  isStopable: 1
  isTeleport: 1
  club: {fileID: 11400000, guid: 8b88f306ff143470ba52a78250694c24, type: 2}
  surfaceString: Teleport
